%YAML 1.1
%TAG !u! tag:unity3d.com,2011:
--- !u!1 &3995767534258930599
GameObject:
  m_ObjectHideFlags: 0
  m_CorrespondingSourceObject: {fileID: 0}
  m_PrefabInstance: {fileID: 0}
  m_PrefabAsset: {fileID: 0}
  serializedVersion: 6
  m_Component:
  - component: {fileID: 2896037026514258288}
  - component: {fileID: 4905490160306010513}
  - component: {fileID: 6411647477803934799}
  m_Layer: 31
  m_Name: Layer1
  m_TagString: Untagged
  m_Icon: {fileID: 0}
  m_NavMeshLayer: 0
  m_StaticEditorFlags: 0
  m_IsActive: 1
--- !u!4 &2896037026514258288
Transform:
  m_ObjectHideFlags: 0
  m_CorrespondingSourceObject: {fileID: 0}
  m_PrefabInstance: {fileID: 0}
  m_PrefabAsset: {fileID: 0}
  m_GameObject: {fileID: 3995767534258930599}
  m_LocalRotation: {x: -0, y: -0, z: -0, w: 1}
  m_LocalPosition: {x: 0, y: 0, z: 0}
  m_LocalScale: {x: 1, y: 1, z: 1}
  m_Children: []
  m_Father: {fileID: 3596067706171729537}
  m_RootOrder: 0
  m_LocalEulerAnglesHint: {x: 0, y: 0, z: 0}
--- !u!1839735485 &4905490160306010513
Tilemap:
  m_ObjectHideFlags: 0
  m_CorrespondingSourceObject: {fileID: 0}
  m_PrefabInstance: {fileID: 0}
  m_PrefabAsset: {fileID: 0}
  m_GameObject: {fileID: 3995767534258930599}
  m_Enabled: 1
  m_Tiles:
  - first: {x: 2, y: -5, z: 0}
    second:
      serializedVersion: 2
      m_TileIndex: 27
      m_TileSpriteIndex: 27
      m_TileMatrixIndex: 0
      m_TileColorIndex: 0
      m_TileObjectToInstantiateIndex: 65535
      m_AllTileFlags: 1073741825
  - first: {x: 3, y: -5, z: 0}
    second:
      serializedVersion: 2
      m_TileIndex: 28
      m_TileSpriteIndex: 28
      m_TileMatrixIndex: 0
      m_TileColorIndex: 0
      m_TileObjectToInstantiateIndex: 65535
      m_AllTileFlags: 1073741825
  - first: {x: 4, y: -5, z: 0}
    second:
      serializedVersion: 2
      m_TileIndex: 29
      m_TileSpriteIndex: 29
      m_TileMatrixIndex: 0
      m_TileColorIndex: 0
      m_TileObjectToInstantiateIndex: 65535
      m_AllTileFlags: 1073741825
  - first: {x: 2, y: -4, z: 0}
    second:
      serializedVersion: 2
      m_TileIndex: 24
      m_TileSpriteIndex: 24
      m_TileMatrixIndex: 0
      m_TileColorIndex: 0
      m_TileObjectToInstantiateIndex: 65535
      m_AllTileFlags: 1073741825
  - first: {x: 3, y: -4, z: 0}
    second:
      serializedVersion: 2
      m_TileIndex: 25
      m_TileSpriteIndex: 25
      m_TileMatrixIndex: 0
      m_TileColorIndex: 0
      m_TileObjectToInstantiateIndex: 65535
      m_AllTileFlags: 1073741825
  - first: {x: 4, y: -4, z: 0}
    second:
      serializedVersion: 2
      m_TileIndex: 26
      m_TileSpriteIndex: 26
      m_TileMatrixIndex: 0
      m_TileColorIndex: 0
      m_TileObjectToInstantiateIndex: 65535
      m_AllTileFlags: 1073741825
  - first: {x: -1, y: -3, z: 0}
    second:
      serializedVersion: 2
      m_TileIndex: 18
      m_TileSpriteIndex: 18
      m_TileMatrixIndex: 0
      m_TileColorIndex: 0
      m_TileObjectToInstantiateIndex: 65535
      m_AllTileFlags: 1073741825
  - first: {x: 0, y: -3, z: 0}
    second:
      serializedVersion: 2
      m_TileIndex: 19
      m_TileSpriteIndex: 19
      m_TileMatrixIndex: 0
      m_TileColorIndex: 0
      m_TileObjectToInstantiateIndex: 65535
      m_AllTileFlags: 1073741825
  - first: {x: 1, y: -3, z: 0}
    second:
      serializedVersion: 2
      m_TileIndex: 20
      m_TileSpriteIndex: 20
      m_TileMatrixIndex: 0
      m_TileColorIndex: 0
      m_TileObjectToInstantiateIndex: 65535
      m_AllTileFlags: 1073741825
  - first: {x: 2, y: -3, z: 0}
    second:
      serializedVersion: 2
      m_TileIndex: 21
      m_TileSpriteIndex: 21
      m_TileMatrixIndex: 0
      m_TileColorIndex: 0
      m_TileObjectToInstantiateIndex: 65535
      m_AllTileFlags: 1073741825
  - first: {x: 3, y: -3, z: 0}
    second:
      serializedVersion: 2
      m_TileIndex: 22
      m_TileSpriteIndex: 22
      m_TileMatrixIndex: 0
      m_TileColorIndex: 0
      m_TileObjectToInstantiateIndex: 65535
      m_AllTileFlags: 1073741825
  - first: {x: 4, y: -3, z: 0}
    second:
      serializedVersion: 2
      m_TileIndex: 23
      m_TileSpriteIndex: 23
      m_TileMatrixIndex: 0
      m_TileColorIndex: 0
      m_TileObjectToInstantiateIndex: 65535
      m_AllTileFlags: 1073741825
  - first: {x: -1, y: -2, z: 0}
    second:
      serializedVersion: 2
      m_TileIndex: 12
      m_TileSpriteIndex: 12
      m_TileMatrixIndex: 0
      m_TileColorIndex: 0
      m_TileObjectToInstantiateIndex: 65535
      m_AllTileFlags: 1073741825
  - first: {x: 0, y: -2, z: 0}
    second:
      serializedVersion: 2
      m_TileIndex: 13
      m_TileSpriteIndex: 13
      m_TileMatrixIndex: 0
      m_TileColorIndex: 0
      m_TileObjectToInstantiateIndex: 65535
      m_AllTileFlags: 1073741825
  - first: {x: 1, y: -2, z: 0}
    second:
      serializedVersion: 2
      m_TileIndex: 14
      m_TileSpriteIndex: 14
      m_TileMatrixIndex: 0
      m_TileColorIndex: 0
      m_TileObjectToInstantiateIndex: 65535
      m_AllTileFlags: 1073741825
  - first: {x: 2, y: -2, z: 0}
    second:
      serializedVersion: 2
      m_TileIndex: 15
      m_TileSpriteIndex: 15
      m_TileMatrixIndex: 0
      m_TileColorIndex: 0
      m_TileObjectToInstantiateIndex: 65535
      m_AllTileFlags: 1073741825
  - first: {x: 3, y: -2, z: 0}
    second:
      serializedVersion: 2
      m_TileIndex: 16
      m_TileSpriteIndex: 16
      m_TileMatrixIndex: 0
      m_TileColorIndex: 0
      m_TileObjectToInstantiateIndex: 65535
      m_AllTileFlags: 1073741825
  - first: {x: 4, y: -2, z: 0}
    second:
      serializedVersion: 2
      m_TileIndex: 17
      m_TileSpriteIndex: 17
      m_TileMatrixIndex: 0
      m_TileColorIndex: 0
      m_TileObjectToInstantiateIndex: 65535
      m_AllTileFlags: 1073741825
  - first: {x: -1, y: -1, z: 0}
    second:
      serializedVersion: 2
      m_TileIndex: 2
      m_TileSpriteIndex: 6
      m_TileMatrixIndex: 0
      m_TileColorIndex: 0
      m_TileObjectToInstantiateIndex: 65535
      m_AllTileFlags: 1073741825
  - first: {x: 0, y: -1, z: 0}
    second:
      serializedVersion: 2
      m_TileIndex: 3
      m_TileSpriteIndex: 7
      m_TileMatrixIndex: 0
      m_TileColorIndex: 0
      m_TileObjectToInstantiateIndex: 65535
      m_AllTileFlags: 1073741825
  - first: {x: 1, y: -1, z: 0}
    second:
      serializedVersion: 2
      m_TileIndex: 8
      m_TileSpriteIndex: 8
      m_TileMatrixIndex: 0
      m_TileColorIndex: 0
      m_TileObjectToInstantiateIndex: 65535
      m_AllTileFlags: 1073741825
  - first: {x: 2, y: -1, z: 0}
    second:
      serializedVersion: 2
      m_TileIndex: 9
      m_TileSpriteIndex: 9
      m_TileMatrixIndex: 0
      m_TileColorIndex: 0
      m_TileObjectToInstantiateIndex: 65535
      m_AllTileFlags: 1073741825
  - first: {x: 3, y: -1, z: 0}
    second:
      serializedVersion: 2
      m_TileIndex: 10
      m_TileSpriteIndex: 10
      m_TileMatrixIndex: 0
      m_TileColorIndex: 0
      m_TileObjectToInstantiateIndex: 65535
      m_AllTileFlags: 1073741825
  - first: {x: 4, y: -1, z: 0}
    second:
      serializedVersion: 2
      m_TileIndex: 11
      m_TileSpriteIndex: 11
      m_TileMatrixIndex: 0
      m_TileColorIndex: 0
      m_TileObjectToInstantiateIndex: 65535
      m_AllTileFlags: 1073741825
  - first: {x: -1, y: 0, z: 0}
    second:
      serializedVersion: 2
      m_TileIndex: 0
      m_TileSpriteIndex: 0
      m_TileMatrixIndex: 0
      m_TileColorIndex: 0
      m_TileObjectToInstantiateIndex: 65535
      m_AllTileFlags: 1073741825
  - first: {x: 0, y: 0, z: 0}
    second:
      serializedVersion: 2
      m_TileIndex: 1
      m_TileSpriteIndex: 1
      m_TileMatrixIndex: 0
      m_TileColorIndex: 0
      m_TileObjectToInstantiateIndex: 65535
      m_AllTileFlags: 1073741825
  - first: {x: 1, y: 0, z: 0}
    second:
      serializedVersion: 2
      m_TileIndex: 4
      m_TileSpriteIndex: 2
      m_TileMatrixIndex: 0
      m_TileColorIndex: 0
      m_TileObjectToInstantiateIndex: 65535
      m_AllTileFlags: 1073741825
  - first: {x: 2, y: 0, z: 0}
    second:
      serializedVersion: 2
      m_TileIndex: 5
      m_TileSpriteIndex: 3
      m_TileMatrixIndex: 0
      m_TileColorIndex: 0
      m_TileObjectToInstantiateIndex: 65535
      m_AllTileFlags: 1073741825
  - first: {x: 3, y: 0, z: 0}
    second:
      serializedVersion: 2
      m_TileIndex: 6
      m_TileSpriteIndex: 4
      m_TileMatrixIndex: 0
      m_TileColorIndex: 0
      m_TileObjectToInstantiateIndex: 65535
      m_AllTileFlags: 1073741825
  - first: {x: 4, y: 0, z: 0}
    second:
      serializedVersion: 2
      m_TileIndex: 7
      m_TileSpriteIndex: 5
      m_TileMatrixIndex: 0
      m_TileColorIndex: 0
      m_TileObjectToInstantiateIndex: 65535
      m_AllTileFlags: 1073741825
  m_AnimatedTiles: {}
  m_TileAssetArray:
  - m_RefCount: 1
    m_Data: {fileID: 11400000, guid: acba8b7e0e4c3e24798fbde32816dc44, type: 2}
  - m_RefCount: 1
    m_Data: {fileID: 11400000, guid: c27d1f1a5aecc6a44b2e0b86a7fef129, type: 2}
  - m_RefCount: 1
    m_Data: {fileID: 11400000, guid: 912d960e43a7e7b40a1efbacdf434efb, type: 2}
  - m_RefCount: 1
    m_Data: {fileID: 11400000, guid: c80cf5c26b83ba541bc98915b2b2fdc1, type: 2}
  - m_RefCount: 1
    m_Data: {fileID: 11400000, guid: a58479b8a6d692247ab670eb69b73b11, type: 2}
  - m_RefCount: 1
    m_Data: {fileID: 11400000, guid: 80d695ad6583a5d48b569cecfd407034, type: 2}
  - m_RefCount: 1
    m_Data: {fileID: 11400000, guid: 7a175555b908dde4ca4f64e671b79d27, type: 2}
  - m_RefCount: 1
    m_Data: {fileID: 11400000, guid: 0087e7c8044c73d49a1d14ae0607bf79, type: 2}
  - m_RefCount: 1
    m_Data: {fileID: 11400000, guid: 3973ca9270e597343ae64ccf94e1853b, type: 2}
  - m_RefCount: 1
    m_Data: {fileID: 11400000, guid: f32f9ad6477f7b34ea88dfd1e9cf2ad7, type: 2}
  - m_RefCount: 1
    m_Data: {fileID: 11400000, guid: 7d32bfe940e96c346b6837eebaf515d8, type: 2}
  - m_RefCount: 1
    m_Data: {fileID: 11400000, guid: 0fe76fbc56a87824c9296e78a6480216, type: 2}
  - m_RefCount: 1
    m_Data: {fileID: 11400000, guid: b06c99e732a157b4595d16d598d4889d, type: 2}
  - m_RefCount: 1
    m_Data: {fileID: 11400000, guid: 03efbf7c2bf7b4348836218fdcc8df40, type: 2}
  - m_RefCount: 1
    m_Data: {fileID: 11400000, guid: 7cae12d3b319e2f4bad111acb18a4a81, type: 2}
  - m_RefCount: 1
    m_Data: {fileID: 11400000, guid: 806f1dce22db4024c8bd9b5c437c5302, type: 2}
  - m_RefCount: 1
    m_Data: {fileID: 11400000, guid: 7a9f7e37c0d505b48ac9c5538dbe577b, type: 2}
  - m_RefCount: 1
    m_Data: {fileID: 11400000, guid: 594fec95c29f9c9448d64093cd69487d, type: 2}
  - m_RefCount: 1
    m_Data: {fileID: 11400000, guid: 372b1449106552c41bf63f0ad5f84684, type: 2}
  - m_RefCount: 1
    m_Data: {fileID: 11400000, guid: 250fdb25ae387794e8205b392fa95c18, type: 2}
  - m_RefCount: 1
    m_Data: {fileID: 11400000, guid: 48767df6d2c95c149977760b6b5f8cef, type: 2}
  - m_RefCount: 1
    m_Data: {fileID: 11400000, guid: 2b283f862c13bf1488131283db40648a, type: 2}
  - m_RefCount: 1
    m_Data: {fileID: 11400000, guid: c67f4946af38ef442911236379ae5345, type: 2}
  - m_RefCount: 1
    m_Data: {fileID: 11400000, guid: 17f61d128b6db5948a2f3fed5547516f, type: 2}
  - m_RefCount: 1
    m_Data: {fileID: 11400000, guid: 8e80b1cc786c591459f7ff5cda242e79, type: 2}
  - m_RefCount: 1
    m_Data: {fileID: 11400000, guid: 1383e23f4516ead47ba6476d263920fb, type: 2}
  - m_RefCount: 1
    m_Data: {fileID: 11400000, guid: a7e4e2e9216c77b4185966bae69ba8e9, type: 2}
  - m_RefCount: 1
    m_Data: {fileID: 11400000, guid: f88480e3527d8ca4b96fb89806a36a64, type: 2}
  - m_RefCount: 1
    m_Data: {fileID: 11400000, guid: ceda63f2e58d2f443a9b96f56a685009, type: 2}
  - m_RefCount: 1
    m_Data: {fileID: 11400000, guid: db6edde1ced3ac44b98d9c1122ff1194, type: 2}
  m_TileSpriteArray:
  - m_RefCount: 1
    m_Data: {fileID: -593139672956120411, guid: 5c70aa2ef1358804188933ff7006ef06,
      type: 3}
  - m_RefCount: 1
    m_Data: {fileID: 3573703985144018777, guid: 5c70aa2ef1358804188933ff7006ef06,
      type: 3}
  - m_RefCount: 1
    m_Data: {fileID: 7492380556087136594, guid: 5c70aa2ef1358804188933ff7006ef06,
      type: 3}
  - m_RefCount: 1
    m_Data: {fileID: -4718592649172387762, guid: 5c70aa2ef1358804188933ff7006ef06,
      type: 3}
  - m_RefCount: 1
    m_Data: {fileID: 379323418600991060, guid: 5c70aa2ef1358804188933ff7006ef06, type: 3}
  - m_RefCount: 1
    m_Data: {fileID: -1678133326065218604, guid: 5c70aa2ef1358804188933ff7006ef06,
      type: 3}
  - m_RefCount: 1
    m_Data: {fileID: -625539227782303400, guid: 5c70aa2ef1358804188933ff7006ef06,
      type: 3}
  - m_RefCount: 1
    m_Data: {fileID: 3583708512451856021, guid: 5c70aa2ef1358804188933ff7006ef06,
      type: 3}
  - m_RefCount: 1
    m_Data: {fileID: 6129594327554604943, guid: 5c70aa2ef1358804188933ff7006ef06,
      type: 3}
  - m_RefCount: 1
    m_Data: {fileID: -7942113608768248259, guid: 5c70aa2ef1358804188933ff7006ef06,
      type: 3}
  - m_RefCount: 1
    m_Data: {fileID: 1246324947973430410, guid: 5c70aa2ef1358804188933ff7006ef06,
      type: 3}
  - m_RefCount: 1
    m_Data: {fileID: -4459245011346984734, guid: 5c70aa2ef1358804188933ff7006ef06,
      type: 3}
  - m_RefCount: 1
    m_Data: {fileID: 67724548508652941, guid: 5c70aa2ef1358804188933ff7006ef06, type: 3}
  - m_RefCount: 1
    m_Data: {fileID: 2145950050003926475, guid: 5c70aa2ef1358804188933ff7006ef06,
      type: 3}
  - m_RefCount: 1
    m_Data: {fileID: 9108087894895892238, guid: 5c70aa2ef1358804188933ff7006ef06,
      type: 3}
  - m_RefCount: 1
    m_Data: {fileID: 2193256326048130045, guid: 5c70aa2ef1358804188933ff7006ef06,
      type: 3}
  - m_RefCount: 1
    m_Data: {fileID: 4416227792969982311, guid: 5c70aa2ef1358804188933ff7006ef06,
      type: 3}
  - m_RefCount: 1
    m_Data: {fileID: 5740029209503701381, guid: 5c70aa2ef1358804188933ff7006ef06,
      type: 3}
  - m_RefCount: 1
    m_Data: {fileID: -3999969746760015992, guid: 5c70aa2ef1358804188933ff7006ef06,
      type: 3}
  - m_RefCount: 1
    m_Data: {fileID: 7065540698825480466, guid: 5c70aa2ef1358804188933ff7006ef06,
      type: 3}
  - m_RefCount: 1
    m_Data: {fileID: -7929553580149794113, guid: 5c70aa2ef1358804188933ff7006ef06,
      type: 3}
  - m_RefCount: 1
    m_Data: {fileID: 465990411835283022, guid: 5c70aa2ef1358804188933ff7006ef06, type: 3}
  - m_RefCount: 1
    m_Data: {fileID: 3797411300866065212, guid: 5c70aa2ef1358804188933ff7006ef06,
      type: 3}
  - m_RefCount: 1
    m_Data: {fileID: -5341585872806881583, guid: 5c70aa2ef1358804188933ff7006ef06,
      type: 3}
  - m_RefCount: 1
    m_Data: {fileID: -529896161688891306, guid: 5c70aa2ef1358804188933ff7006ef06,
      type: 3}
  - m_RefCount: 1
    m_Data: {fileID: -8753993712157955840, guid: 5c70aa2ef1358804188933ff7006ef06,
      type: 3}
  - m_RefCount: 1
    m_Data: {fileID: 5752543384673728258, guid: 5c70aa2ef1358804188933ff7006ef06,
      type: 3}
  - m_RefCount: 1
    m_Data: {fileID: 5498291927809604670, guid: 5c70aa2ef1358804188933ff7006ef06,
      type: 3}
  - m_RefCount: 1
    m_Data: {fileID: 3349759169270445001, guid: 5c70aa2ef1358804188933ff7006ef06,
      type: 3}
  - m_RefCount: 1
    m_Data: {fileID: 3845981381423583657, guid: 5c70aa2ef1358804188933ff7006ef06,
      type: 3}
  m_TileMatrixArray:
  - m_RefCount: 30
    m_Data:
      e00: 1
      e01: 0
      e02: 0
      e03: 0
      e10: 0
      e11: 1
      e12: 0
      e13: 0
      e20: 0
      e21: 0
      e22: 1
      e23: 0
      e30: 0
      e31: 0
      e32: 0
      e33: 1
  m_TileColorArray:
  - m_RefCount: 30
    m_Data: {r: 1, g: 1, b: 1, a: 1}
  m_TileObjectToInstantiateArray: []
  m_AnimationFrameRate: 1
  m_Color: {r: 1, g: 1, b: 1, a: 1}
  m_Origin: {x: -1, y: -5, z: 0}
  m_Size: {x: 6, y: 6, z: 1}
  m_TileAnchor: {x: 0.5, y: 0.5, z: 0}
  m_TileOrientation: 0
  m_TileOrientationMatrix:
    e00: 1
    e01: 0
    e02: 0
    e03: 0
    e10: 0
    e11: 1
    e12: 0
    e13: 0
    e20: 0
    e21: 0
    e22: 1
    e23: 0
    e30: 0
    e31: 0
    e32: 0
    e33: 1
--- !u!483693784 &6411647477803934799
TilemapRenderer:
  m_ObjectHideFlags: 0
  m_CorrespondingSourceObject: {fileID: 0}
  m_PrefabInstance: {fileID: 0}
  m_PrefabAsset: {fileID: 0}
  m_GameObject: {fileID: 3995767534258930599}
  m_Enabled: 0
  m_CastShadows: 0
  m_ReceiveShadows: 0
  m_DynamicOccludee: 0
  m_MotionVectors: 1
  m_LightProbeUsage: 0
  m_ReflectionProbeUsage: 0
  m_RayTracingMode: 0
  m_RenderingLayerMask: 1
  m_RendererPriority: 0
  m_Materials:
  - {fileID: 10754, guid: 0000000000000000f000000000000000, type: 0}
  m_StaticBatchInfo:
    firstSubMesh: 0
    subMeshCount: 0
  m_StaticBatchRoot: {fileID: 0}
  m_ProbeAnchor: {fileID: 0}
  m_LightProbeVolumeOverride: {fileID: 0}
  m_ScaleInLightmap: 1
  m_ReceiveGI: 1
  m_PreserveUVs: 0
  m_IgnoreNormalsForChartDetection: 0
  m_ImportantGI: 0
  m_StitchLightmapSeams: 1
  m_SelectedEditorRenderState: 0
  m_MinimumChartSize: 4
  m_AutoUVMaxDistance: 0.5
  m_AutoUVMaxAngle: 89
  m_LightmapParameters: {fileID: 0}
  m_SortingLayerID: 0
  m_SortingLayer: 0
  m_SortingOrder: 0
  m_ChunkSize: {x: 32, y: 32, z: 32}
  m_ChunkCullingBounds: {x: 0, y: 0, z: 0}
  m_MaxChunkCount: 16
  m_MaxFrameAge: 16
  m_SortOrder: 0
  m_Mode: 0
  m_DetectChunkCullingBounds: 0
  m_MaskInteraction: 0
--- !u!1 &6550600160945742836
GameObject:
  m_ObjectHideFlags: 0
  m_CorrespondingSourceObject: {fileID: 0}
  m_PrefabInstance: {fileID: 0}
  m_PrefabAsset: {fileID: 0}
  serializedVersion: 6
  m_Component:
  - component: {fileID: 3596067706171729537}
  - component: {fileID: 4552693926305179923}
  m_Layer: 31
  m_Name: Signs
  m_TagString: Untagged
  m_Icon: {fileID: 0}
  m_NavMeshLayer: 0
  m_StaticEditorFlags: 0
  m_IsActive: 1
--- !u!4 &3596067706171729537
Transform:
  m_ObjectHideFlags: 0
  m_CorrespondingSourceObject: {fileID: 0}
  m_PrefabInstance: {fileID: 0}
  m_PrefabAsset: {fileID: 0}
  m_GameObject: {fileID: 6550600160945742836}
  m_LocalRotation: {x: 0, y: 0, z: 0, w: 1}
  m_LocalPosition: {x: 0, y: 0, z: 0}
  m_LocalScale: {x: 1, y: 1, z: 1}
  m_Children:
  - {fileID: 2896037026514258288}
  m_Father: {fileID: 0}
  m_RootOrder: 0
  m_LocalEulerAnglesHint: {x: 0, y: 0, z: 0}
--- !u!156049354 &4552693926305179923
Grid:
  m_ObjectHideFlags: 0
  m_CorrespondingSourceObject: {fileID: 0}
  m_PrefabInstance: {fileID: 0}
  m_PrefabAsset: {fileID: 0}
  m_GameObject: {fileID: 6550600160945742836}
  m_Enabled: 1
  m_CellSize: {x: 1, y: 1, z: 0}
  m_CellGap: {x: 0, y: 0, z: 0}
  m_CellLayout: 0
  m_CellSwizzle: 0
--- !u!114 &-3867293667467652029
MonoBehaviour:
  m_ObjectHideFlags: 0
  m_CorrespondingSourceObject: {fileID: 0}
  m_PrefabInstance: {fileID: 0}
  m_PrefabAsset: {fileID: 0}
  m_GameObject: {fileID: 0}
  m_Enabled: 1
  m_EditorHideFlags: 0
  m_Script: {fileID: 12395, guid: 0000000000000000e000000000000000, type: 0}
  m_Name: Palette Settings
  m_EditorClassIdentifier: 
  cellSizing: 0
